to,Gràcia
Abroad,436.0
Andalusia,109.0
Aragon,44.0
Asturias,15.0
Balearic Islands,113.0
Basque Country,38.0
Canary Islands,54.0
Cantabria,9.0
Castile and León,31.0
Castilla-La Mancha,14.0
Catalonia,2440.0
Ceuta,0.0
Community of Madrid,212.0
Extremadura,11.0
Galicia,77.0
La Rioja,2.0
Melilla,1.0
Navarre,23.0
Region of Murcia,28.0
Valencian Community,150.0
