to,Les Corts
Andalucía,72.0
Aragón,31.0
Asturias,12.0
Cantabria,4.0
Castilla y León,35.0
Castilla-La Mancha,30.0
Cataluña,1668.0
Ceuta y Melilla,4.0
Comuniadad Valenciana,75.0
Comunidad de Madrid,168.0
Extremadura,9.0
Galicia,34.0
Internacional,380.0
Islas Baleares,61.0
Islas Canarias,46.0
La Rioja,5.0
Navarra,7.0
País Vasco,15.0
Región de Murcia,3.0
