to,Nou Barris
Andalucía,195.0
Aragón,74.0
Asturias,20.0
Cantabria,6.0
Castilla y León,57.0
Castilla-La Mancha,50.0
Cataluña,3667.0
Ceuta y Melilla,2.0
Comuniadad Valenciana,132.0
Comunidad de Madrid,158.0
Extremadura,29.0
Galicia,84.0
Internacional,386.0
Islas Baleares,70.0
Islas Canarias,47.0
La Rioja,3.0
Navarra,18.0
País Vasco,37.0
Región de Murcia,26.0
