to,Sarrià-Sant Gervasi
Andalucía,81.0
Aragón,42.0
Asturias,14.0
Cantabria,5.0
Castilla y León,25.0
Castilla-La Mancha,18.0
Cataluña,2322.0
Ceuta y Melilla,3.0
Comuniadad Valenciana,128.0
Comunidad de Madrid,337.0
Extremadura,9.0
Galicia,51.0
Internacional,683.0
Islas Baleares,174.0
Islas Canarias,66.0
La Rioja,5.0
Navarra,10.0
País Vasco,42.0
Región de Murcia,22.0
