to,Sant Martí
Andalucía,232.0
Aragón,124.0
Asturias,28.0
Cantabria,24.0
Castilla y León,72.0
Castilla-La Mancha,46.0
Cataluña,5025.0
Ceuta y Melilla,2.0
Comuniadad Valenciana,235.0
Comunidad de Madrid,281.0
Extremadura,25.0
Galicia,111.0
Internacional,750.0
Islas Baleares,175.0
Islas Canarias,104.0
La Rioja,7.0
Navarra,28.0
País Vasco,57.0
Región de Murcia,36.0
