from,Gràcia
Andalucía,196.0
Aragón,55.0
Asturias,25.0
Cantabria,19.0
Castilla y León,66.0
Castilla-La Mancha,43.0
Cataluña,1958.0
Ceuta y Melilla,8.0
Comuniadad Valenciana,206.0
Comunidad de Madrid,260.0
Extremadura,24.0
Galicia,77.0
Internacional,3964.0
Islas Baleares,162.0
Islas Canarias,61.0
La Rioja,11.0
Navarra,16.0
País Vasco,74.0
Región de Murcia,29.0
