from,Horta-Guinardó
Andalucía,233.0
Aragón,71.0
Asturias,26.0
Cantabria,18.0
Castilla y León,67.0
Castilla-La Mancha,37.0
Cataluña,2819.0
Ceuta y Melilla,2.0
Comuniadad Valenciana,198.0
Comunidad de Madrid,211.0
Extremadura,34.0
Galicia,77.0
Internacional,3716.0
Islas Baleares,132.0
Islas Canarias,64.0
La Rioja,7.0
Navarra,21.0
País Vasco,46.0
Región de Murcia,20.0
