Andalucía,2416.0
Aragón,811.0
Asturias,323.0
Cantabria,162.0
Castilla y León,814.0
Castilla-La Mancha,445.0
Cataluña,28779.0
Ceuta y Melilla,84.0
Comuniadad Valenciana,2305.0
Comunidad de Madrid,2942.0
Extremadura,240.0
Galicia,983.0
Islas Baleares,1634.0
Islas Canarias,863.0
La Rioja,129.0
Navarra,246.0
País Vasco,710.0
Región de Murcia,354.0
