to,Ciutat Vella
Andalucía,188.0
Aragón,64.0
Asturias,14.0
Cantabria,17.0
Castilla y León,39.0
Castilla-La Mancha,23.0
Cataluña,2906.0
Ceuta y Melilla,4.0
Comuniadad Valenciana,167.0
Comunidad de Madrid,259.0
Extremadura,19.0
Galicia,55.0
Internacional,486.0
Islas Baleares,187.0
Islas Canarias,95.0
La Rioja,9.0
Navarra,11.0
País Vasco,62.0
Región de Murcia,24.0
