Abroad,5903.0
Andalucía,323.0
Aragón,98.0
Asturias,46.0
Islas Baleares,176.0
País Vasco,86.0
Islas Canarias,90.0
Cantabria,23.0
Castilla y León,119.0
Castilla-La Mancha,47.0
Cataluña,3816.0
Ceuta y Melilla,5.0
Comunidad de Madrid,340.0
Extremadura,24.0
Galicia,130.0
La Rioja,16.0
Ceuta y Melilla,11.0
Navarra,31.0
Región de Murcia,42.0
Comuniadad Valenciana,357.0
