in,Horta-Guinardó
Can Baró,5876
Horta,21637
Montbau,3451
Sant Genís dels Agudells,4767
el Baix Guinardó,16160
el Carmel,26021
el Guinardó,25256
la Clota,254
la Font d'en Fargues,7632
la Teixonera,7890
la Vall d'Hebron,3671
